[
    {   
        "name": "Leather mule sliders",
        "price": "45.99",
        "picture": "https://static.reserved.com/media/catalog/product/cache/1200/a4e40ebdc3e371adff845072e1c73f37/7/7/7730S-00X-011-1-614137_1.jpg",
        "code": "7730",
        "color": "white",
        "isFavourite": false
    },
    {
        "name": "Chunky heel pumps",
        "price": "29.99",
        "picture": "https://static.reserved.com/media/catalog/product/cache/1200/a4e40ebdc3e371adff845072e1c73f37/7/6/7634S-77X-010-1-605997.jpg",
        "code": "7634",
        "color": "green",
        "isFavourite": false
    },
    {
        "name": "Leather sliders",
        "price": "29.99",
        "picture": "https://static.reserved.com/media/catalog/product/cache/1200/a4e40ebdc3e371adff845072e1c73f37/7/5/7508S-99X-010-1-616253.jpg",
        "code": "7508",
        "color": "black",
        "isFavourite": false
    },
    {
        "name": "High heel pumps",
        "price": "39.99",
        "picture": "https://static.reserved.com/media/catalog/product/cache/1200/a4e40ebdc3e371adff845072e1c73f37/7/3/7390S-66X-010-1-605195_1.jpg",
        "code": "7390",
        "color": "turquoise",
        "isFavourite": false
    },
    {
        "name": "Lace up sneakers",
        "price": "35.99",
        "picture": "https://static.reserved.com/media/catalog/product/cache/1200/a4e40ebdc3e371adff845072e1c73f37/7/3/7375S-00X-011-1-596479_15.jpg",
        "code": "7375",
        "color": "white",
        "isFavourite": false
    },
    {
        "name": "Thick sole loafers",
        "price": "39.99",
        "picture": "https://static.reserved.com/media/catalog/product/cache/1200/a4e40ebdc3e371adff845072e1c73f37/7/4/7454S-01X-010-2-580937_16.jpg",
        "code": "7454",
        "color": "cream",
        "isFavourite": false
    },
    {
        "name": "Flat sandals",
        "price": "39.99",
        "picture": "https://static.reserved.com/media/catalog/product/cache/1200/a4e40ebdc3e371adff845072e1c73f37/7/4/7463S-55X-010-1-607505.jpg",
        "code": "7463",
        "color": "blue",
        "isFavourite": false
    },
    {
        "name": "Chunky heel pumps",
        "price": "25.99",
        "picture": "https://static.reserved.com/media/catalog/product/cache/1200/a4e40ebdc3e371adff845072e1c73f37/7/7/7707S-43X-010-1-607733.jpg",
        "code": "7707",
        "color": "fuchsia",
        "isFavourite": false
    },
    {
        "name": "High heel sandals",
        "price": "39.99",
        "picture": "https://static.reserved.com/media/catalog/product/cache/1200/a4e40ebdc3e371adff845072e1c73f37/7/4/7475S-77X-010-1-625355_3.jpg",
        "code": "7475",
        "color": "green",
        "isFavourite": false
    },
    {
        "name": "Pumps",
        "price": "35.99",
        "picture": "https://static.reserved.com/media/catalog/product/cache/1200/a4e40ebdc3e371adff845072e1c73f37/7/5/7557S-99X-010-1-591951_4.jpg",
        "code": "7557",
        "color": "black",
        "isFavourite": false
    }

]